-------------------------------------------------------------------------------
Test set: com.example.hackathon.HackathonApplicationTests
-------------------------------------------------------------------------------
Tests run: 1, Failures: 0, Errors: 0, Skipped: 0, Time elapsed: 8.611 s - in com.example.hackathon.HackathonApplicationTests
